Running a control file folder • shellfishrisks
…
parallel::detectC ores()

I would recommend at least at first not running more than half your available cores.

batches <- shellfishrisks::run_ctrl_folder(ctrl_folder = "ctrl_files", cores = 2)

From there the results are stored in the resulting batch folders. The batch names are returned by run_ctrl_folder, which we can then pass to serve_shellfish along with the path to the results folder

batches <- gsub("\\.csv","",list.files("ctrl_files"))

results <- serve_shellfish(batches =batches ,
                           results_dir = "results") # read the results stored in .txt files into a list object

results$survival
#> # A tibble: 22 x 6
#> # Groups:   batch, coreid, Rep [2]
#>    batch coreid   Rep   age survival survivorship
#>    <chr>  <int> <int> <dbl>    <dbl>        <dbl>
#>  1 ctrl1      1     0     0   0.523      1       
#>  2 ctrl1      1     0     1   0.394      0.523   
#>  3 ctrl1      1     0     2   0.0506     0.206   
#>  4 ctrl1      1     0     3   0.736      0.0104  
#>  5 ctrl1      1     0     4   0.652      0.00769 
#>  6 ctrl1      1     0     5   0.667      0.00501 
#>  7 ctrl1      1     0     6   0.686      0.00334 
#>  8 ctrl1      1     0     7   0.53       0.00229 
#>  9 ctrl1      1     0     8   0.761      0.00121 
#> 10 ctrl1      1     0     9   0.213      0.000925
#> # ... with 12 more rows
…
