Running multiple batches • shellfishrisks
…
results <- serve_shellfish(batches = c("spam1","eggs2"),
                           results_dir = here::here("vignettes","results")) # read the results stored in .txt files into a list object

results$survival
#> # A tibble: 22 × 4
#> # Groups:   batch [2]
#>    batch   age survival survivorship
#>    <chr> <dbl>    <dbl>        <dbl>
#>  1 eggs2     0   0.742        1     
#>  2 eggs2     1   0.734        0.742 
#>  3 eggs2     2   0.709        0.545 
#>  4 eggs2     3   0.730        0.386 
#>  5 eggs2     4   0.728        0.282 
#>  6 eggs2     5   0.718        0.205 
#>  7 eggs2     6   0.714        0.147 
#>  8 eggs2     7   0.712        0.105 
#>  9 eggs2     8   0.688        0.0749
#> 10 eggs2     9   0.0276       0.0515
#> # … with 12 more rows
…
